/home/swipeapps/Documents/kraken/prueba/sistema/src/main/java/com/mx/rest/TrabajadorService.java
/home/swipeapps/Documents/kraken/prueba/sistema/src/main/java/com/mx/mapeadojackson/Transferenciajackson.java
/home/swipeapps/Documents/kraken/prueba/sistema/src/main/java/com/mx/mapeadojackson/ReporteTransjackson.java
/home/swipeapps/Documents/kraken/prueba/sistema/src/main/java/com/mx/funciones/Funciones.java
/home/swipeapps/Documents/kraken/prueba/sistema/src/main/java/com/mx/entidades/Trabajadores.java
/home/swipeapps/Documents/kraken/prueba/sistema/src/main/java/com/mx/mapeadojackson/Productojackson.java
/home/swipeapps/Documents/kraken/prueba/sistema/src/main/java/com/mx/mapeadojackson/Comprajackson.java
/home/swipeapps/Documents/kraken/prueba/sistema/src/main/java/com/mx/mapeadojackson/Autentificacion.java
/home/swipeapps/Documents/kraken/prueba/sistema/src/main/java/com/mx/configuraciones/HibernateUtil.java
/home/swipeapps/Documents/kraken/prueba/sistema/src/main/java/com/mx/rest/CompraService.java
/home/swipeapps/Documents/kraken/prueba/sistema/src/main/java/com/mx/entidades/Tienda.java
/home/swipeapps/Documents/kraken/prueba/sistema/src/main/java/com/mx/mapeadojackson/Provedorjackson.java
/home/swipeapps/Documents/kraken/prueba/sistema/src/main/java/com/mx/entidades/Ventas.java
/home/swipeapps/Documents/kraken/prueba/sistema/src/main/java/com/mx/core/Informacion.java
/home/swipeapps/Documents/kraken/prueba/sistema/src/main/java/com/mx/mapeadojackson/almacenjackson.java
/home/swipeapps/Documents/kraken/prueba/sistema/src/main/java/com/mx/rest/TransferenciaService.java
/home/swipeapps/Documents/kraken/prueba/sistema/src/main/java/com/mx/mapeadojackson/Tiendajackson.java
/home/swipeapps/Documents/kraken/prueba/sistema/src/main/java/com/mx/entidades/Tipo_trabajador.java
/home/swipeapps/Documents/kraken/prueba/sistema/src/main/java/com/mx/entidades/Almacen.java
/home/swipeapps/Documents/kraken/prueba/sistema/src/main/java/com/mx/mapeadojackson/Reportejackson.java
/home/swipeapps/Documents/kraken/prueba/sistema/src/main/java/com/mx/entidades/Compras.java
/home/swipeapps/Documents/kraken/prueba/sistema/src/main/java/com/mx/mapeadojackson/ReporteVentajackson.java
/home/swipeapps/Documents/kraken/prueba/sistema/src/main/java/com/mx/mapeadojackson/Trabajadoresjackson.java
/home/swipeapps/Documents/kraken/prueba/sistema/src/main/java/com/mx/mapeadojackson/Pruebatransferencia.java
/home/swipeapps/Documents/kraken/prueba/sistema/src/main/java/com/mx/entidades/UserInfo.java
/home/swipeapps/Documents/kraken/prueba/sistema/src/main/java/com/mx/rest/ProductoService.java
/home/swipeapps/Documents/kraken/prueba/sistema/src/main/java/com/mx/rest/ProveedorService.java
/home/swipeapps/Documents/kraken/prueba/sistema/src/main/java/com/mx/entidades/Transferencias.java
/home/swipeapps/Documents/kraken/prueba/sistema/src/main/java/com/mx/rest/VentaService.java
/home/swipeapps/Documents/kraken/prueba/sistema/src/main/java/com/mx/entidades/Proveedores.java
/home/swipeapps/Documents/kraken/prueba/sistema/src/main/java/com/mx/rest/TiendaService.java
/home/swipeapps/Documents/kraken/prueba/sistema/src/main/java/com/mx/rest/oauth2Service.java
/home/swipeapps/Documents/kraken/prueba/sistema/src/main/java/com/mx/mapeadojackson/Ventajackson.java
/home/swipeapps/Documents/kraken/prueba/sistema/src/main/java/com/mx/rest/ResporteService.java
/home/swipeapps/Documents/kraken/prueba/sistema/src/main/java/com/mx/mapeadojackson/AuthTokenInfo.java
/home/swipeapps/Documents/kraken/prueba/sistema/src/main/java/com/mx/entidades/Producto.java
